<svg width="1200" height="352" viewBox="0 0 1200 352" fill="none" xmlns="http://www.w3.org/2000/svg">
<path d="M152.159 25.4583C153.522 26.5949 154.884 27.5041 156.701 28.186C158.518 28.8679 160.335 29.0952 162.606 29.0952C167.148 29.0952 170.554 27.9587 173.279 25.4583C175.778 22.9579 177.14 19.7756 177.14 15.9114C177.14 12.0471 175.778 8.8648 173.279 6.36441C170.781 3.86402 167.148 2.72748 162.606 2.72748C160.335 2.72748 158.518 2.95479 156.701 3.63671C154.884 4.31864 153.522 5.22787 152.159 6.36441C150.797 7.50095 149.888 8.8648 149.207 10.6833C148.525 12.2744 148.071 14.0929 148.071 16.1387C148.071 17.9571 148.525 19.7756 149.207 21.5941C149.888 22.9579 150.797 24.3218 152.159 25.4583Z" fill="white"/>
<path d="M201.439 117.973H175.095V40.9155H122.181V61.3733H149.887V117.973H122.181V138.204H201.439V117.973Z" fill="white"/>
<path d="M817.336 25.4583C818.698 26.5949 820.061 27.5041 821.878 28.186C823.695 28.8679 825.511 29.0952 827.782 29.0952C832.324 29.0952 835.731 27.9587 838.456 25.4583C840.954 22.9579 842.317 19.7756 842.317 15.9114C842.317 12.0471 840.954 8.8648 838.456 6.36441C835.958 3.86402 832.324 2.72748 827.782 2.72748C825.511 2.72748 823.695 2.95479 821.878 3.63671C820.061 4.31864 818.698 5.22787 817.336 6.36441C815.973 7.50095 815.065 8.8648 814.384 10.6833C813.702 12.2744 813.248 14.0929 813.248 16.1387C813.248 17.9571 813.702 19.7756 814.384 21.5941C815.292 22.9579 816.2 24.3218 817.336 25.4583Z" fill="white"/>
<path d="M866.843 117.973H840.499V40.9155H787.585V61.3733H815.291V117.973H787.585V138.204H866.843V117.973Z" fill="white"/>
<path d="M237.093 126.156C240.272 130.475 244.36 133.885 249.129 136.385C253.898 138.885 259.122 140.022 265.026 140.022C270.477 140.022 275.246 138.885 279.334 136.84C283.422 134.794 287.055 131.839 290.235 127.975L291.597 138.203H314.08V0H288.872V49.5532C285.92 46.1436 282.513 43.6432 278.652 41.8247C274.792 40.0063 270.25 39.097 265.254 39.097C259.122 39.097 253.898 40.2336 249.129 42.734C244.36 45.2344 240.5 48.4167 237.093 52.9628C233.687 57.2817 231.188 62.5098 229.599 68.6471C227.782 74.7844 227.101 81.6037 227.101 88.8776V90.696C227.101 97.7426 228.009 104.335 229.599 110.472C231.188 116.382 233.687 121.61 237.093 126.156ZM251.855 88.8776C251.855 84.786 252.309 80.9218 252.99 77.2848C253.671 73.6479 254.807 70.6929 256.397 67.9652C257.986 65.2375 260.03 63.1917 262.528 61.6006C265.026 60.0094 267.979 59.3275 271.612 59.3275C275.927 59.3275 279.334 60.2367 282.286 62.0552C285.011 63.8736 287.282 66.374 289.099 69.7837V109.335C287.509 112.518 285.238 115.018 282.286 117.064C279.334 118.882 275.927 119.791 271.612 119.791C267.979 119.791 265.026 119.11 262.528 117.518C260.03 115.927 257.986 113.881 256.397 111.381C254.807 108.881 253.671 105.698 252.99 102.289C252.309 98.8791 251.855 95.0149 251.855 90.9233V88.8776Z" fill="white"/>
<path d="M358.138 137.976C362.226 139.34 366.768 140.249 371.764 140.249C374.717 140.249 377.669 140.022 380.394 139.34C383.119 138.658 385.39 137.976 387.661 137.067C389.932 136.158 391.749 135.021 393.566 133.657C395.383 132.294 396.972 130.93 398.335 129.339C398.562 131.157 399.016 132.748 399.471 134.339C399.925 135.931 400.379 137.294 401.06 138.431H426.496V136.84C425.133 134.339 424.225 131.384 423.543 127.975C422.862 124.565 422.635 120.246 422.635 115.018V73.1934C422.635 67.5107 421.499 62.5099 419.455 58.1911C417.412 53.8722 414.459 50.2353 410.826 47.5076C407.192 44.7799 402.65 42.5068 397.654 41.143C392.658 39.7791 387.207 38.8699 381.303 38.8699C374.717 38.8699 369.039 39.7791 363.816 41.3703C358.82 42.9614 354.505 45.2345 350.871 48.1895C347.465 50.9172 344.739 54.3268 342.923 57.9638C341.106 61.6007 340.197 65.6923 340.197 69.7838H365.178C365.178 66.1469 366.314 63.1919 368.585 60.9188C370.856 58.6457 374.717 57.7365 379.713 57.7365C385.39 57.7365 389.932 59.1003 392.885 61.828C395.837 64.5557 397.427 68.1927 397.427 72.9661V78.6488H383.574C368.358 78.6488 357.003 81.3765 349.281 87.0592C341.56 92.742 337.699 100.698 337.699 110.927C337.699 115.018 338.608 119.11 340.197 122.519C341.787 126.156 344.285 129.111 347.237 131.839C350.19 134.567 353.823 136.612 358.138 137.976ZM364.043 102.971C364.951 101.152 366.087 99.5612 367.904 98.1974C369.72 96.8335 371.991 95.697 374.717 95.015C377.442 94.3331 380.848 93.8785 384.709 93.8785H397.427V110.699C396.745 112.063 395.61 113.2 394.474 114.336C393.112 115.473 391.749 116.609 389.932 117.519C388.116 118.428 386.299 119.337 384.028 119.792C381.757 120.474 379.486 120.701 376.988 120.701C372.219 120.701 368.585 119.564 366.314 117.291C364.043 115.018 362.68 112.29 362.68 108.881C362.68 106.835 363.135 104.789 364.043 102.971Z" fill="white"/>
<path d="M470.099 136.385C474.868 138.885 480.091 140.022 485.996 140.022C491.447 140.022 496.216 138.885 500.303 136.84C504.391 134.794 508.025 131.839 511.204 127.975L512.567 138.203H535.05V0H509.842V49.5532C506.889 46.1436 503.483 43.6432 499.622 41.8247C495.761 40.0063 491.219 39.097 486.223 39.097C480.091 39.097 474.868 40.2336 470.099 42.734C465.33 45.2344 461.469 48.4167 458.063 52.9628C454.656 57.2817 452.158 62.5098 450.568 68.6471C448.752 74.7844 448.07 81.6037 448.07 88.8776V90.696C448.07 97.7426 448.979 104.335 450.568 110.472C452.385 116.609 454.883 121.61 458.063 126.156C461.469 130.475 465.33 133.885 470.099 136.385ZM473.051 88.8776C473.051 84.786 473.506 80.9218 474.187 77.2848C474.868 73.6479 476.004 70.6929 477.593 67.9652C479.183 65.2375 481.227 63.1917 483.725 61.6006C486.223 60.0094 489.176 59.3275 492.809 59.3275C497.124 59.3275 500.531 60.2367 503.483 62.0552C506.208 63.8736 508.479 66.374 510.296 69.7837V109.335C508.706 112.518 506.435 115.018 503.483 117.064C500.531 118.882 497.124 119.791 492.809 119.791C489.176 119.791 486.223 119.11 483.725 117.518C481.227 115.927 479.183 113.881 477.593 111.381C476.004 108.881 474.868 105.698 474.187 102.289C473.506 98.8791 473.051 95.0149 473.051 90.9233V88.8776Z" fill="white"/>
<path d="M643.603 115.018V73.1934C643.603 67.5107 642.467 62.5099 640.423 58.1911C638.379 53.8722 635.427 50.2353 631.793 47.5076C628.16 44.7799 623.618 42.5068 618.622 41.143C613.625 39.7791 608.175 38.8699 602.27 38.8699C595.684 38.8699 590.007 39.7791 584.784 41.3703C579.787 42.9614 575.472 45.2345 571.839 48.1895C568.432 50.9172 565.707 54.3268 563.89 57.9638C562.074 61.6007 561.165 65.6923 561.165 69.7838H586.146C586.146 66.1469 587.282 63.1919 589.553 60.9188C591.824 58.6457 595.684 57.7365 600.681 57.7365C606.358 57.7365 610.9 59.1003 613.852 61.828C616.805 64.5557 618.394 68.1927 618.394 72.9661V78.6488H604.541C589.326 78.6488 577.971 81.3765 570.249 87.0592C562.528 92.742 558.667 100.698 558.667 110.927C558.667 115.018 559.575 119.11 561.165 122.519C562.755 126.156 565.253 129.111 568.205 131.839C571.158 134.339 574.791 136.385 578.879 137.976C582.967 139.34 587.509 140.249 592.505 140.249C595.457 140.249 598.41 140.022 601.135 139.34C603.86 138.658 606.131 137.976 608.402 137.067C610.673 136.158 612.49 135.021 614.307 133.657C616.123 132.294 617.713 130.93 619.076 129.339C619.303 131.157 619.757 132.748 620.211 134.339C620.665 135.931 621.12 137.294 621.801 138.431H647.236V136.84C645.874 134.339 644.965 131.384 644.284 127.975C643.83 124.565 643.603 120.246 643.603 115.018ZM618.622 110.472C617.94 111.836 616.805 112.972 615.669 114.109C614.307 115.245 612.944 116.382 611.127 117.291C609.31 118.201 607.494 119.11 605.223 119.564C602.952 120.246 600.681 120.474 598.182 120.474C593.413 120.474 589.78 119.337 587.509 117.064C585.238 114.791 583.875 112.063 583.875 108.654C583.875 106.38 584.329 104.335 585.238 102.516C586.146 100.698 587.282 99.1066 589.098 97.7427C590.915 96.3789 593.186 95.2424 595.911 94.5604C598.637 93.8785 602.043 93.4239 605.904 93.4239H618.622V110.472V110.472Z" fill="white"/>
<path d="M696.971 69.1017C698.788 66.1467 701.286 63.6463 704.239 62.0552C707.191 60.2367 710.825 59.5548 715.139 59.5548C718.092 59.5548 720.59 59.7821 722.861 60.464C725.132 61.1459 727.176 62.0552 728.765 63.419C730.355 64.7829 731.718 66.8287 732.399 69.3291C733.308 71.8294 733.762 75.0118 733.762 78.876V138.431H758.743V78.4214C758.743 71.3748 757.834 65.2375 756.245 60.464C754.655 55.4632 752.384 51.3717 749.205 48.4167C746.252 45.2344 742.619 42.9613 738.531 41.5974C734.443 40.2336 729.901 39.3243 725.132 39.3243C719 39.3243 713.55 40.6882 708.554 43.4159C703.557 46.1436 699.242 49.7805 695.836 54.7813L694.246 41.3701H671.536V138.885H696.744V69.1017H696.971Z" fill="white"/>
<path d="M975.171 115.018V73.1934C975.171 67.5107 974.035 62.5099 971.992 58.1911C969.948 53.8722 966.995 50.2353 963.362 47.5076C959.728 44.7799 955.186 42.5068 950.19 41.143C945.194 39.7791 939.743 38.8699 933.839 38.8699C927.253 38.8699 921.575 39.7791 916.352 41.3703C911.356 42.9614 907.041 45.2345 903.407 48.1895C900.001 50.9172 897.275 54.3268 895.459 57.9638C893.642 61.6007 892.733 65.6923 892.733 69.7838H917.715C917.715 66.1469 918.85 63.1919 921.121 60.9188C923.392 58.6457 927.253 57.7365 932.249 57.7365C937.926 57.7365 942.468 59.1003 945.421 61.828C948.373 64.5557 949.963 68.1927 949.963 72.9661V78.6488H936.11C920.894 78.6488 909.539 81.3765 901.817 87.0592C894.096 92.742 890.235 100.698 890.235 110.927C890.235 115.018 891.144 119.11 892.733 122.519C894.323 126.156 896.821 129.111 899.774 131.839C902.726 134.339 906.359 136.385 910.447 137.976C914.535 139.34 919.077 140.249 924.073 140.249C927.026 140.249 929.978 140.022 932.703 139.34C935.428 138.658 937.699 137.976 939.97 137.067C942.241 136.158 944.058 135.021 945.875 133.657C947.692 132.294 949.282 130.93 950.644 129.339C950.871 131.157 951.325 132.748 951.78 134.339C952.234 135.931 952.688 137.294 953.369 138.431H978.805V136.84C977.442 134.339 976.534 131.384 975.852 127.975C975.625 124.565 975.171 120.246 975.171 115.018ZM950.19 110.472C949.509 111.836 948.373 112.972 947.238 114.109C945.875 115.245 944.512 116.382 942.696 117.291C940.879 118.201 939.062 119.11 936.791 119.564C934.52 120.246 932.249 120.474 929.751 120.474C924.982 120.474 921.348 119.337 919.077 117.064C916.806 114.791 915.444 112.063 915.444 108.654C915.444 106.38 915.898 104.335 916.806 102.516C917.715 100.698 918.85 99.1066 920.667 97.7427C922.484 96.3789 924.755 95.2424 927.48 94.5604C930.205 93.8785 933.612 93.4239 937.472 93.4239H950.19V110.472V110.472Z" fill="white"/>
<path d="M1086 138.204H1004.01V157.752H1086V138.204Z" fill="white"/>
<path d="M9.76465 205.714H34.5186V296.183H9.76465V316.413H85.3892V296.183H59.9539V205.714H85.3892V185.256H9.76465V205.714Z" fill="white"/>
<path d="M196.668 226.399C193.716 223.217 190.083 220.944 185.995 219.58C181.907 218.216 177.365 217.307 172.596 217.307C166.464 217.307 161.014 218.671 156.017 221.398C151.021 224.126 146.706 227.763 143.3 232.764L141.71 219.353H119V316.868H144.208V247.539C146.025 244.584 148.523 242.083 151.475 240.492C154.428 238.674 158.061 237.992 162.376 237.992C165.329 237.992 167.827 238.219 170.098 238.901C172.369 239.583 174.413 240.492 176.002 241.856C177.592 243.22 178.955 245.266 179.636 247.766C180.544 250.266 180.998 253.449 180.998 257.313V316.868H205.98V256.858C205.98 249.812 205.071 243.675 203.481 238.901C201.892 233.446 199.621 229.354 196.668 226.399Z" fill="white"/>
<path d="M417.412 230.491C413.551 226.399 409.009 222.989 403.558 220.716C398.108 218.443 391.749 217.307 384.709 217.307C377.896 217.307 371.764 218.443 365.86 220.944C360.182 223.444 355.186 226.854 350.871 231.4C346.783 235.946 343.377 241.174 341.106 247.311C338.835 253.449 337.699 260.268 337.699 267.769V271.406C337.699 277.998 338.835 284.135 341.333 289.818C343.604 295.501 347.01 300.502 351.552 304.821C355.867 309.139 361.091 312.322 367.222 314.822C373.354 317.322 380.167 318.459 387.661 318.459C392.431 318.459 396.973 318.004 401.06 316.868C405.148 315.959 409.009 314.595 412.415 312.776C415.822 311.185 418.774 309.139 421.272 307.094C423.77 305.048 425.814 302.775 427.404 300.502L414.913 287.09C413.551 288.909 411.734 290.5 409.917 291.864C408.1 293.228 405.829 294.364 403.786 295.274C401.515 296.183 399.244 296.865 396.745 297.319C394.247 297.774 391.976 298.001 389.478 298.001C386.072 298.001 382.892 297.547 379.94 296.41C376.988 295.274 374.49 293.91 372.219 291.864C369.948 289.818 368.131 287.545 366.541 284.817C365.178 282.09 364.043 279.135 363.589 275.725H429.675V265.042C429.675 257.995 428.767 251.403 426.723 245.493C424.225 239.81 421.272 234.582 417.412 230.491ZM404.467 258.677H363.362C364.043 255.495 364.951 252.54 366.087 250.039C367.222 247.539 368.812 245.266 370.629 243.447C372.446 241.629 374.49 240.265 376.761 239.128C379.032 238.219 381.757 237.537 384.482 237.537C387.661 237.537 390.387 237.992 392.885 239.128C395.383 240.038 397.427 241.401 399.016 243.22C400.606 245.038 401.969 246.857 402.877 249.357C403.786 251.63 404.24 254.131 404.467 256.858V258.677V258.677Z" fill="white"/>
<path d="M505.526 178.21H451.021V198.668H480.317V296.183H451.021V316.413H533.459V296.183H505.526V178.21Z" fill="white"/>
<path d="M612.037 219.125H559.122V239.583H586.828V296.183H559.122V316.413H638.38V296.183H612.037V219.125Z" fill="white"/>
<path d="M599.32 180.71C597.049 180.71 595.232 180.937 593.415 181.619C591.598 182.301 590.236 183.21 588.873 184.347C587.51 185.483 586.602 186.847 585.921 188.666C585.239 190.257 584.785 192.075 584.785 194.121C584.785 195.94 585.239 197.758 585.921 199.577C586.602 201.168 587.51 202.532 588.873 203.895C590.236 205.032 591.598 205.941 593.415 206.623C595.232 207.305 597.049 207.532 599.32 207.532C603.862 207.532 607.268 206.396 609.993 203.895C612.491 201.395 613.854 198.213 613.854 194.348C613.854 190.484 612.491 187.302 609.993 184.802C607.268 182.074 603.862 180.71 599.32 180.71Z" fill="white"/>
<path d="M857.531 230.491C853.67 226.399 849.128 222.989 843.678 220.716C838.227 218.443 831.868 217.307 824.828 217.307C818.015 217.307 811.883 218.443 805.979 220.944C800.301 223.444 795.305 226.854 790.99 231.4C786.902 235.946 783.496 241.174 781.225 247.311C778.954 253.449 777.818 260.268 777.818 267.769V271.406C777.818 277.998 778.954 284.135 781.452 289.818C783.723 295.501 787.129 300.502 791.672 304.821C795.986 309.139 801.21 312.322 807.341 314.822C813.473 317.322 820.286 318.459 827.78 318.459C832.55 318.459 837.092 318.004 841.179 316.868C845.267 315.959 849.128 314.595 852.534 312.776C855.941 311.185 858.893 309.139 861.391 307.094C863.889 305.048 865.933 302.775 867.523 300.502L855.033 287.09C853.67 288.909 851.853 290.5 850.036 291.864C848.22 293.228 845.949 294.364 843.905 295.274C841.634 296.183 839.363 296.865 836.865 297.319C834.366 297.774 832.095 298.001 829.597 298.001C826.191 298.001 823.011 297.547 820.059 296.41C817.107 295.274 814.609 293.91 812.338 291.864C810.067 289.818 808.25 287.545 806.66 284.817C805.298 282.09 804.162 279.135 803.708 275.725H869.794V265.042C869.794 257.995 868.886 251.403 866.842 245.493C864.117 239.81 861.164 234.582 857.531 230.491ZM844.586 258.677H803.481C804.162 255.495 805.07 252.54 806.206 250.039C807.341 247.539 808.931 245.266 810.748 243.447C812.565 241.629 814.609 240.265 816.88 239.128C819.151 238.219 821.876 237.537 824.601 237.537C827.781 237.537 830.506 237.992 833.004 239.128C835.502 240.038 837.546 241.401 839.136 243.22C840.725 245.038 842.088 246.857 842.996 249.357C843.905 251.63 844.359 254.131 844.586 256.858V258.677V258.677Z" fill="white"/>
<path d="M972.9 226.399C969.947 223.217 966.314 220.944 962.226 219.58C958.138 218.216 953.596 217.307 948.827 217.307C942.695 217.307 937.245 218.671 932.249 221.398C927.253 224.126 922.938 227.763 919.531 232.764L917.941 219.353H895.231V316.868H920.44V247.539C922.256 244.584 924.754 242.083 927.707 240.492C930.659 238.674 934.293 237.992 938.608 237.992C941.56 237.992 944.058 238.219 946.329 238.901C948.6 239.583 950.644 240.492 952.234 241.856C953.823 243.22 955.186 245.266 955.867 247.766C956.776 250.266 957.23 253.449 957.23 257.313V316.868H982.211V256.858C982.211 249.812 981.302 243.675 979.713 238.901C978.123 233.446 975.852 229.354 972.9 226.399Z" fill="white"/>
<path d="M1199.32 265.269C1199.32 258.222 1198.41 251.63 1196.37 245.72C1194.32 239.81 1191.6 234.81 1187.74 230.491C1183.88 226.399 1179.33 222.989 1173.88 220.716C1168.43 218.443 1162.07 217.307 1155.03 217.307C1148.22 217.307 1142.09 218.443 1136.18 220.944C1130.51 223.444 1125.51 226.854 1121.2 231.4C1117.11 235.946 1113.7 241.174 1111.43 247.311C1109.16 253.449 1108.02 260.268 1108.02 267.769V271.406C1108.02 277.998 1109.16 284.135 1111.66 289.818C1113.93 295.501 1117.34 300.502 1121.88 304.821C1126.19 309.139 1131.42 312.322 1137.55 314.822C1143.68 317.322 1150.49 318.459 1157.99 318.459C1162.76 318.459 1167.3 318.004 1171.39 316.868C1175.47 315.959 1179.33 314.595 1182.74 312.776C1186.15 311.185 1189.1 309.139 1191.6 307.094C1194.1 305.048 1196.14 302.775 1197.73 300.502L1185.24 287.09C1183.88 288.909 1182.06 290.5 1180.24 291.864C1178.43 293.228 1176.15 294.364 1174.11 295.274C1171.84 296.183 1169.57 296.865 1167.07 297.319C1164.57 297.774 1162.3 298.001 1159.8 298.001C1156.4 298.001 1153.22 297.547 1150.27 296.41C1147.31 295.274 1144.81 293.91 1142.54 291.864C1140.27 289.818 1138.46 287.545 1136.87 284.817C1135.5 282.09 1134.37 279.135 1133.91 275.725H1200V265.269H1199.32ZM1174.79 258.677H1133.69C1134.37 255.495 1135.28 252.54 1136.41 250.039C1137.55 247.539 1139.14 245.266 1140.95 243.447C1142.77 241.629 1144.81 240.265 1147.09 239.128C1149.36 238.219 1152.08 237.537 1154.81 237.537C1157.99 237.537 1160.71 237.992 1163.21 239.128C1165.71 240.038 1167.75 241.401 1169.34 243.22C1170.93 245.038 1172.29 246.857 1173.2 249.357C1174.11 251.63 1174.56 254.131 1174.79 256.858V258.677V258.677Z" fill="white"/>
<path d="M725.587 228.217C722.635 224.58 719.228 221.853 715.14 220.034C711.053 218.216 706.283 217.079 700.379 217.079C694.247 217.079 688.797 218.216 684.028 220.716C679.258 223.217 674.944 226.399 671.537 230.945C668.131 235.264 665.405 240.492 663.589 246.629C661.772 252.767 660.863 259.586 660.863 266.86V268.678C660.863 275.725 661.772 282.317 663.589 288.454C665.405 294.591 668.131 299.592 671.537 304.138C674.944 308.457 679.031 311.867 683.8 314.367C688.57 316.868 694.02 318.004 700.152 318.004C705.375 318.004 709.917 317.095 713.778 315.277C717.638 313.458 721.045 310.958 723.997 307.775V313.458V325.278C723.997 325.733 723.997 325.96 723.77 326.415C723.543 329.37 721.953 330.961 719.001 330.961H673.354V351.419H734.898C738.986 351.419 742.392 350.055 745.118 347.327C747.843 344.599 748.978 343.008 748.978 338.689V313.231V306.412V219.125H726.268L725.587 228.217ZM724.224 288.454C722.635 291.409 720.364 293.91 717.411 295.501C714.459 297.092 711.053 298.001 706.511 298.001C702.877 298.001 699.925 297.319 697.427 295.728C694.928 294.137 692.657 292.091 691.068 289.591C689.478 287.09 688.115 283.908 687.434 280.498C686.526 277.089 686.299 273.224 686.299 269.133V267.314C686.299 263.223 686.753 259.359 687.661 255.722C688.57 252.085 689.705 249.13 691.522 246.402C693.339 243.674 695.383 241.629 697.881 240.037C700.379 238.446 703.558 237.764 706.965 237.764C711.28 237.764 714.686 238.674 717.638 240.265C720.591 241.856 722.862 244.356 724.451 247.311V288.454H724.224Z" fill="white"/>
<path d="M1050.57 195.258H1025.59V219.125H1003.33V237.537H1025.59V281.862V302.32V303.911C1025.59 308.003 1026.95 309.821 1029.45 312.549C1032.17 315.277 1035.58 316.64 1039.67 316.64H1047.16H1079.18H1086.45V314.595V296.183H1084.18H1058.52H1055.34C1052.39 296.183 1050.8 294.592 1050.57 291.637C1050.57 291.409 1050.57 291.182 1050.57 290.955V277.316V237.537H1086.91V219.125H1050.57V195.258Z" fill="white"/>
<path d="M275.928 195.258H250.947V219.125H228.691V237.537H250.947V281.862V302.32V303.911C250.947 308.003 252.31 309.821 254.808 312.549C257.533 315.277 260.94 316.64 265.028 316.64H272.522H304.543H311.81V314.595V296.183H309.539H283.877H280.697C277.745 296.183 276.155 294.592 275.928 291.637C275.928 291.409 275.928 291.182 275.928 290.955V277.316V237.537H312.264V219.125H275.928V195.258Z" fill="white"/>
<path d="M70.6283 56.8272H95.1552V53.4176C95.1552 52.0537 95.1552 50.6899 94.9281 49.326C94.701 43.6433 93.5655 38.4152 91.9758 33.6417C89.9319 27.7317 86.9796 22.7309 82.8917 18.4121C78.8039 14.3205 74.0348 11.1382 68.1302 8.86513C62.2256 6.59205 55.4126 5.45551 47.9182 5.45551C43.6033 5.45551 39.5155 5.91012 35.6548 6.81936C33.1567 7.50128 30.8857 8.41051 28.6147 9.31975C22.7101 12.2748 17.4868 16.139 13.3989 21.3671C9.08403 26.5952 5.90462 32.7325 3.63361 40.0064C1.1355 47.2802 0 55.236 0 64.1011V72.7388V81.6038C0 90.2415 1.1355 98.1973 3.17941 105.471C5.45042 112.745 8.40272 118.882 12.4905 123.883C16.5783 128.884 21.5746 132.975 27.7063 135.931C28.8418 136.385 29.9773 136.84 31.3399 137.294C36.3361 138.886 41.7865 139.795 47.9182 139.795C55.6397 139.795 62.2256 138.658 68.1302 136.385C74.0348 134.112 79.031 130.93 82.8917 126.838C86.9796 122.747 89.9319 117.519 91.9758 111.609C93.5655 107.062 94.4739 102.289 94.9281 97.0608C95.1552 95.2423 95.1552 93.6512 95.1552 91.8327V88.6504H70.6283V92.06C70.6283 93.4238 70.6283 95.4696 70.6283 97.2881C70.1741 105.244 67.9031 110.927 64.0424 114.336C60.1817 117.746 54.9584 119.564 48.3724 119.564C40.4239 119.564 34.7464 116.382 31.1128 110.245C27.4792 104.107 25.6624 94.5604 25.6624 81.6038V63.6464C25.6624 57.7364 26.1166 52.281 27.025 47.5076C27.9334 42.7341 29.296 38.8698 31.1128 35.4602C32.9296 32.0506 35.4277 29.7775 38.38 27.959C41.3323 26.3679 44.7388 25.4586 48.5995 25.4586C52.2332 25.4586 55.4126 25.9133 58.1378 27.0498C60.863 27.959 63.134 29.5502 64.9508 31.3687C66.7676 33.4144 67.9031 35.9148 68.8115 38.8698C69.7199 41.8248 70.4012 45.2345 70.6283 49.0987C70.6283 50.6899 70.6283 52.0537 70.6283 53.1903V56.8272Z" fill="white"/>
</svg>
